…
``` r
# quick look at the app's output object
app_output
```

    A <move2> with `track_id_column` "individual_name_deployment_id" and
    `time_column` "timestamp"
    Containing 5 tracks lasting on average 267 days in a
    Simple feature collection with 8020 features and 46 fields
    Geometry type: POINT
    Dimension:     XY
    Bounding box:  xmin: 3.7317 ymin: -14.6795 xmax: 53.61963 ymax: 69.15667
    Geodetic CRS:  WGS 84
    # A tibble: 8,020 × 47
       sensor_type_id barometric_pressure data_decoding_software eobs_activity
     *        <int64>              [mbar] <fct>                          <int>
     1            653                  NA <NA>                              NA
     2            653                  NA <NA>                              NA
     3            653                  NA <NA>                              NA
     4            653                  NA <NA>                              NA
     5            653                  NA <NA>                              NA
     6            653                  NA <NA>                              NA
     7            653                  NA <NA>                              NA
     8            653                  NA <NA>                              NA
     9            653                  NA <NA>                              NA
    10            653                  NA <NA>                              NA
    # ℹ 8,010 more rows
    # ℹ 43 more variables: eobs_activity_samples <dbl>, eobs_battery_voltage [mV],
    #   eobs_fix_battery_voltage [mV], eobs_horizontal_accuracy_estimate [m],
    #   eobs_key_bin_checksum <int64>, eobs_speed_accuracy_estimate [m/s],
    #   eobs_start_timestamp <dttm>, eobs_status <ord>, eobs_temperature [°C],
    #   eobs_type_of_fix <fct>, eobs_used_time_to_get_fix [s], gps_dop [1],
    #   gps_satellite_count [count], ground_speed [m/s], gt_tx_count [count], …
…
As indicated in the `append_type` column, the first retrieved product
was attached as an element of the Output’s `appended_products`
attribute, while the second fetched product (of class `move2:move2_loc`)
was stacked to the input dataset.

To access the actual data in the first appended Product, we hoist the
nested element `object` from the first element of `apnd_prods`.

``` r
apnd_prods |> 
  purrr::pluck(1) |> 
  purrr::pluck("object")
```

    # A tibble: 250 × 85
       trackId       timestamp           location.long location.lat sensor
       <chr>         <dttm>                      <dbl>        <dbl> <chr> 
     1 Bateleur_8889 2023-10-01 14:45:12          38.6        -9.62 GPS   
     2 Bateleur_8889 2023-10-01 15:00:18          38.6        -9.62 GPS   
     3 Bateleur_8889 2023-10-01 15:15:13          38.6        -9.62 GPS   
     4 Bateleur_8889 2023-10-01 15:30:12          38.6        -9.62 GPS   
     5 Bateleur_8889 2023-10-01 15:45:15          38.6        -9.62 GPS   
     6 Bateleur_8889 2023-10-01 16:00:18          38.6        -9.62 GPS   
     7 Bateleur_8889 2023-10-01 16:15:11          38.6        -9.62 GPS   
     8 Bateleur_8889 2023-10-01 16:30:10          38.6        -9.62 GPS   
     9 Bateleur_8889 2023-10-01 16:45:11          38.6        -9.62 GPS   
    10 Bateleur_8889 2023-10-01 17:00:11          38.6        -9.62 GPS   
    # ℹ 240 more rows
    # ℹ 80 more variables: individual.taxon.canonical.name <chr>, event.id <dbl>,
    #   barometric.pressure <dbl>, data.decoding.software <dbl>,
    #   eobs.battery.voltage <dbl>, eobs.fix.battery.voltage <dbl>,
    #   eobs.horizontal.accuracy.estimate <dbl>, eobs.key.bin.checksum <dbl>,
    #   eobs.speed.accuracy.estimate <dbl>, eobs.start.timestamp <dttm>,
    #   eobs.status <chr>, eobs.temperature <dbl>, eobs.type.of.fix <dbl>, …
…
